fifo_buffer/test_run_dir/DUT_should_pass/FifoBufferRdyVld.vcd
$date
2024-01-11T08:13+0000
$end
$version
0.2
$end
$comment

$end
$timescale 1ns  $end
$scope module FifoBufferRdyVld $end
 $var wire 1 ! io_WriterInterface_ready $end
 $var wire 16 " io_ReaderInterface_bits $end
 $var wire 16 # io_WriterInterface_bits $end
 $var wire 1 % io_ReaderInterface_ready $end
 $var wire 1 * io_WriterInterface_valid $end
 $var wire 1 , clock $end
 $var wire 1 - fifoBuffer $end
 $var wire 1 / io_ReaderInterface_valid $end
 $var wire 1 2 reset $end
  $scope module fifoBuffer $end
   $var wire 16 $ io_WriterInterface_din $end
   $var wire 16 & fifoReg $end
   $var wire 1 ' io_ReaderInterface_read $end
   $var wire 1 ( io_WriterInterface_full $end
   $var wire 16 ) io_ReaderInterface_dout $end
   $var wire 1 + clock $end
   $var wire 1 . stateReg $end
   $var wire 16 0 io_ReaderInterface_dout_REG $end
   $var wire 1 1 reset $end
   $var wire 1 3 io_ReaderInterface_empty $end
   $var wire 1 4 io_WriterInterface_write $end
  $upscope $end
$upscope $end
$enddefinitions $end
$dumpvars
0%
04
b0000000000000000 $
0-
0'
0.
0/
b0000000000000000 &
0!
0(
01
0*
b0000000000000000 )
b0000000000000000 0
0+
b0000000000000000 "
02
0,
03
b0000000000000000 #
$end
#0
13
1!
11
12
#1
1+
1,
#6
14
01
02
1*
0+
0,
#11
03
0!
04
1.
1+
1(
1/
1,
#16
1%
0*
1'
0+
0,
#21
13
1!
0.
0'
1+
0(
0/
1,
#26
0%
14
b0000000000000001 #
1*
b0000000000000001 $
0+
0,
#31
03
0!
04
1.
b0000000000000001 &
1+
1(
1/
1,
#36
0*
0+
0,
#41
b0000000000000001 0
1+
1,
#46
1%
b0000000000000001 "
1'
0+
0,
b0000000000000001 )
#51
13
1!
b0000000000000000 "
0.
0'
1+
0(
0/
1,
b0000000000000000 )
#56
0%
14
b0000000000000010 #
1*
b0000000000000010 $
0+
0,
#61
03
0!
04
1.
b0000000000000010 &
1+
1(
1/
1,
#66
0*
0+
0,
#71
b0000000000000010 0
1+
1,
#76
1%
b0000000000000010 "
1'
0+
0,
b0000000000000010 )
#81
13
1!
b0000000000000000 "
0.
0'
1+
0(
0/
1,
b0000000000000000 )
#86
0%
14
b0000000000000011 #
1*
b0000000000000011 $
0+
0,
#91
03
0!
04
1.
b0000000000000011 &
1+
1(
1/
1,
#96
0*
0+
0,
#101
b0000000000000011 0
1+
1,
#106
0+
0,
#111
1+
1,
#116
1%
b0000000000000011 "
1'
0+
0,
b0000000000000011 )
#121
13
1!
b0000000000000000 "
0.
0'
1+
0(
0/
1,
b0000000000000000 )
#126
0%
14
b0000000000000100 #
1*
b0000000000000100 $
0+
0,
#131
03
0!
04
1.
b0000000000000100 &
1+
1(
1/
1,
#136
0*
0+
0,
#141
b0000000000000100 0
1+
1,
#146
1%
b0000000000000100 "
1'
0+
0,
b0000000000000100 )
#151
13
1!
b0000000000000000 "
0.
0'
1+
0(
0/
1,
b0000000000000000 )
#156
0%
14
b0000000000000101 #
1*
b0000000000000101 $
0+
0,
#161
03
0!
04
1.
b0000000000000101 &
1+
1(
1/
1,
#166
0*
0+
0,
#171
b0000000000000101 0
1+
1,
#176
1%
b0000000000000101 "
1'
0+
0,
b0000000000000101 )
#181
13
1!
b0000000000000000 "
0.
0'
1+
0(
0/
1,
b0000000000000000 )
#186
0%
14
b0000000000000110 #
1*
b0000000000000110 $
0+
0,
#191
03
0!
04
1.
b0000000000000110 &
1+
1(
1/
1,
#196
0*
0+
0,
#201
b0000000000000110 0
1+
1,
#206
0+
0,
#211
1+
1,
#216
1%
b0000000000000110 "
1'
0+
0,
b0000000000000110 )
#221
13
1!
b0000000000000000 "
0.
0'
1+
0(
0/
1,
b0000000000000000 )
#226
0%
14
b0000000000000111 #
1*
b0000000000000111 $
0+
0,
#231
03
0!
04
1.
b0000000000000111 &
1+
1(
1/
1,
#236
0*
0+
0,
#241
b0000000000000111 0
1+
1,
#246
1%
b0000000000000111 "
1'
0+
0,
b0000000000000111 )
#251
13
1!
b0000000000000000 "
0.
0'
1+
0(
0/
1,
b0000000000000000 )
#256
0%
14
b0000000000001000 #
1*
b0000000000001000 $
0+
0,
#261
03
0!
04
1.
b0000000000001000 &
1+
1(
1/
1,
#266
0*
0+
0,
#271
b0000000000001000 0
1+
1,
#276
1%
b0000000000001000 "
1'
0+
0,
b0000000000001000 )
#281
13
1!
b0000000000000000 "
0.
0'
1+
0(
0/
1,
b0000000000000000 )
#286
0%
14
b0000000000001001 #
1*
b0000000000001001 $
0+
0,
#291
03
0!
04
1.
b0000000000001001 &
1+
1(
1/
1,
#296
0*
0+
0,
#301
b0000000000001001 0
1+
1,
#306
0+
0,
#311
1+
1,
#316
1%
b0000000000001001 "
1'
0+
0,
b0000000000001001 )
#321
13
1!
b0000000000000000 "
0.
0'
1+
0(
0/
1,
b0000000000000000 )
#326
0%
14
b0000000000001010 #
1*
b0000000000001010 $
0+
0,
#331
03
0!
04
1.
b0000000000001010 &
1+
1(
1/
1,
#336
0*
0+
0,
#341
b0000000000001010 0
1+
1,
#346
1%
b0000000000001010 "
1'
0+
0,
b0000000000001010 )
#351
13
1!
b0000000000000000 "
0.
0'
1+
0(
0/
1,
b0000000000000000 )
#356
0%
14
b0000000000001011 #
1*
b0000000000001011 $
0+
0,
#361
03
0!
04
1.
b0000000000001011 &
1+
1(
1/
1,
#366
0*
0+
0,
#371
b0000000000001011 0
1+
1,
#376
1%
b0000000000001011 "
1'
0+
0,
b0000000000001011 )
#381
13
1!
b0000000000000000 "
0.
0'
1+
0(
0/
1,
b0000000000000000 )
#386
0%
14
b0000000000001100 #
1*
b0000000000001100 $
0+
0,
#391
03
0!
04
1.
b0000000000001100 &
1+
1(
1/
1,
#396
0*
0+
0,
#401
b0000000000001100 0
1+
1,
#406
0+
0,
#411
1+
1,
#416
1%
b0000000000001100 "
1'
0+
0,
b0000000000001100 )
#421
13
1!
b0000000000000000 "
0.
0'
1+
0(
0/
1,
b0000000000000000 )
#426
0%
14
b0000000000001101 #
1*
b0000000000001101 $
0+
0,
#431
03
0!
04
1.
b0000000000001101 &
1+
1(
1/
1,
#436
0*
0+
0,
#441
b0000000000001101 0
1+
1,
#446
1%
b0000000000001101 "
1'
0+
0,
b0000000000001101 )
#451
13
1!
b0000000000000000 "
0.
0'
1+
0(
0/
1,
b0000000000000000 )
#456
0%
14
b0000000000001110 #
1*
b0000000000001110 $
0+
0,
#461
03
0!
04
1.
b0000000000001110 &
1+
1(
1/
1,
#466
0*
0+
0,
#471
b0000000000001110 0
1+
1,
#476
1%
b0000000000001110 "
1'
0+
0,
b0000000000001110 )
#481
13
1!
b0000000000000000 "
0.
0'
1+
0(
0/
1,
b0000000000000000 )
#486
0%
14
b0000000000001111 #
1*
b0000000000001111 $
0+
0,
#491
03
0!
04
1.
b0000000000001111 &
1+
1(
1/
1,
#496
0*
0+
0,
#501
b0000000000001111 0
1+
1,
#506
0+
0,
#511
1+
1,
#516
1%
b0000000000001111 "
1'
0+
0,
b0000000000001111 )
#521
13
1!
b0000000000000000 "
0.
0'
1+
0(
0/
1,
b0000000000000000 )
#526
0%
14
b0000000000010000 #
1*
b0000000000010000 $
0+
0,
#531
03
0!
04
1.
b0000000000010000 &
1+
1(
1/
1,
#536
0*
0+
0,
#541
b0000000000010000 0
1+
1,
#546
1%
b0000000000010000 "
1'
0+
0,
b0000000000010000 )
#551
13
1!
b0000000000000000 "
0.
0'
1+
0(
0/
1,
b0000000000000000 )
#556
0%
14
b0000000000010001 #
1*
b0000000000010001 $
0+
0,
#561
03
0!
04
1.
b0000000000010001 &
1+
1(
1/
1,
#566
0*
0+
0,
#571
b0000000000010001 0
1+
1,
#576
1%
b0000000000010001 "
1'
0+
0,
b0000000000010001 )
#581
13
1!
b0000000000000000 "
0.
0'
1+
0(
0/
1,
b0000000000000000 )
#586
0%
14
b0000000000010010 #
1*
b0000000000010010 $
0+
0,
#591
03
0!
04
1.
b0000000000010010 &
1+
1(
1/
1,
#596
0*
0+
0,
#601
b0000000000010010 0
1+
1,
#606
0+
0,
#611
1+
1,
#616
1%
b0000000000010010 "
1'
0+
0,
b0000000000010010 )
#621
13
1!
b0000000000000000 "
0.
0'
1+
0(
0/
1,
b0000000000000000 )
#626
0%
14
b0000000000010011 #
1*
b0000000000010011 $
0+
0,
#631
03
0!
04
1.
b0000000000010011 &
1+
1(
1/
1,
#636
0*
0+
0,
#641
b0000000000010011 0
1+
1,
#646
1%
b0000000000010011 "
1'
0+
0,
b0000000000010011 )
#651
13
1!
b0000000000000000 "
0.
0'
1+
0(
0/
1,
b0000000000000000 )
#656
0%
14
b0000000000010100 #
1*
b0000000000010100 $
0+
0,
#661
03
0!
04
1.
b0000000000010100 &
1+
1(
1/
1,
#666
0*
0+
0,
#671
b0000000000010100 0
1+
1,
#676
1%
b0000000000010100 "
1'
0+
0,
b0000000000010100 )
#681
13
1!
b0000000000000000 "
0.
0'
1+
0(
0/
1,
b0000000000000000 )
#686
0%
14
b0000000000010101 #
1*
b0000000000010101 $
0+
0,
#691
03
0!
04
1.
b0000000000010101 &
1+
1(
1/
1,
#696
0*
0+
0,
#701
b0000000000010101 0
1+
1,
#706
0+
0,
#711
1+
1,
#716
1%
b0000000000010101 "
1'
0+
0,
b0000000000010101 )
#721
13
1!
b0000000000000000 "
0.
0'
1+
0(
0/
1,
b0000000000000000 )
#726
0%
14
b0000000000010110 #
1*
b0000000000010110 $
0+
0,
#731
03
0!
04
1.
b0000000000010110 &
1+
1(
1/
1,
#736
0*
0+
0,
#741
b0000000000010110 0
1+
1,
#746
1%
b0000000000010110 "
1'
0+
0,
b0000000000010110 )
#751
13
1!
b0000000000000000 "
0.
0'
1+
0(
0/
1,
b0000000000000000 )
#756
0%
14
b0000000000010111 #
1*
b0000000000010111 $
0+
0,
#761
03
0!
04
1.
b0000000000010111 &
1+
1(
1/
1,
#766
0*
0+
0,
#771
b0000000000010111 0
1+
1,
#776
1%
b0000000000010111 "
1'
0+
0,
b0000000000010111 )
#781
13
1!
b0000000000000000 "
0.
0'
1+
0(
0/
1,
b0000000000000000 )
#786
0%
14
b0000000000011000 #
1*
b0000000000011000 $
0+
0,
#791
03
0!
04
1.
b0000000000011000 &
1+
1(
1/
1,
#796
0*
0+
0,
#801
b0000000000011000 0
1+
1,
#806
0+
0,
#811
1+
1,
#816
1%
b0000000000011000 "
1'
0+
0,
b0000000000011000 )
#821
13
1!
b0000000000000000 "
0.
0'
1+
0(
0/
1,
b0000000000000000 )
#826
0%
14
b0000000000011001 #
1*
b0000000000011001 $
0+
0,
#831
03
0!
04
1.
b0000000000011001 &
1+
1(
1/
1,
#836
0*
0+
0,
#841
b0000000000011001 0
1+
1,
#846
1%
b0000000000011001 "
1'
0+
0,
b0000000000011001 )
#851
13
1!
b0000000000000000 "
0.
0'
1+
0(
0/
1,
b0000000000000000 )
#856
0%
14
b0000000000011010 #
1*
b0000000000011010 $
0+
0,
#861
03
0!
04
1.
b0000000000011010 &
1+
1(
1/
1,
#866
0*
0+
0,
#871
b0000000000011010 0
1+
1,
#876
1%
b0000000000011010 "
1'
0+
0,
b0000000000011010 )
#881
13
1!
b0000000000000000 "
0.
0'
1+
0(
0/
1,
b0000000000000000 )
#886
0%
14
b0000000000011011 #
1*
b0000000000011011 $
0+
0,
#891
03
0!
04
1.
b0000000000011011 &
1+
1(
1/
1,
#896
0*
0+
0,
#901
b0000000000011011 0
1+
1,
#906
0+
0,
#911
1+
1,
#916
1%
b0000000000011011 "
1'
0+
0,
b0000000000011011 )
#921
13
1!
b0000000000000000 "
0.
0'
1+
0(
0/
1,
b0000000000000000 )
#926
0%
14
b0000000000011100 #
1*
b0000000000011100 $
0+
0,
#931
03
0!
04
1.
b0000000000011100 &
1+
1(
1/
1,
#936
0*
0+
0,
#941
b0000000000011100 0
1+
1,
#946
1%
b0000000000011100 "
1'
0+
0,
b0000000000011100 )
#951
13
1!
b0000000000000000 "
0.
0'
1+
0(
0/
1,
b0000000000000000 )
#956
0%
14
b0000000000011101 #
1*
b0000000000011101 $
0+
0,
#961
03
0!
04
1.
b0000000000011101 &
1+
1(
1/
1,
#966
b0000000000000000 #
0*
0+
0,
