uart_txrx/test_run_dir/DUT_should_pass/Tx.vcd
$date
2024-01-11T12:18+0000
$end
$version
0.2
$end
$comment

$end
$timescale 1ns  $end
$scope module Tx $end
 $var wire 1 ! stateReg $end
 $var wire 1 " io_channel_ready $end
 $var wire 10 # shiftReg_hi $end
 $var wire 8 $ io_channel_data $end
 $var wire 20 % clkCntReg $end
 $var wire 1 & insert $end
 $var wire 4 ' bitCntReg $end
 $var wire 1 ( clock $end
 $var wire 1 ) io_txd $end
 $var wire 1 * io_channel_valid $end
 $var wire 11 + shiftReg $end
 $var wire 1 , reset $end
$upscope $end
$enddefinitions $end
$dumpvars
0"
b0000 '
0)
0&
0*
b00000000000000000000 %
b0000000000 #
b00000000000 +
0,
0!
b00000000 $
0(
$end
#0
1"
b1100000000 #
1,
#1
b11111111111 +
1(
1)
#6
1&
b1110101010 #
1*
b10101010 $
0(
0,
#11
1!
b11101010100 +
1(
0)
#16
0&
0*
0(
#21
b00000000000000000001 %
0"
1(
#26
0(
#31
b00000000000000000010 %
1(
#36
0(
#41
b00000000000000000011 %
1(
#46
0(
#51
b00000000000000000100 %
1(
#56
0(
#61
b00000000000000000101 %
1(
#66
0(
#71
b00000000000000000110 %
1(
#76
0(
#81
b00000000000000000111 %
1(
#86
0(
#91
b00000000000000001000 %
1(
#96
0(
#101
b00000000000000001001 %
1(
#106
0(
#111
b00000000000000001010 %
1(
#116
0(
#121
b00000000000000001011 %
1(
#126
0(
#131
b00000000000000001100 %
1(
#136
0(
#141
b00000000000000001101 %
1(
#146
0(
#151
b00000000000000001110 %
1(
#156
0(
#161
b00000000000000001111 %
1(
#166
0(
#171
b00000000000000010000 %
1(
#176
0(
#181
b00000000000000010001 %
1(
#186
0(
#191
b00000000000000010010 %
1(
#196
0(
#201
b00000000000000010011 %
1(
#206
0(
#211
b00000000000000010100 %
1(
#216
0(
#221
b00000000000000010101 %
1(
#226
0(
#231
b00000000000000010110 %
1(
#236
0(
#241
b00000000000000010111 %
1(
#246
0(
#251
b00000000000000011000 %
1(
#256
0(
#261
b00000000000000011001 %
1(
#266
0(
#271
b00000000000000011010 %
1(
#276
0(
#281
b00000000000000011011 %
1(
#286
0(
#291
b00000000000000011100 %
1(
#296
0(
#301
b00000000000000011101 %
1(
#306
0(
#311
b00000000000000011110 %
1(
#316
0(
#321
b00000000000000011111 %
1(
#326
0(
#331
b00000000000000100000 %
1(
#336
0(
#341
b00000000000000100001 %
1(
#346
0(
#351
b00000000000000100010 %
1(
#356
0(
#361
b00000000000000100011 %
1(
#366
0(
#371
b00000000000000100100 %
1(
#376
0(
#381
b00000000000000100101 %
1(
#386
0(
#391
b00000000000000100110 %
1(
#396
0(
#401
b00000000000000100111 %
1(
#406
0(
#411
b00000000000000101000 %
1(
#416
0(
#421
b00000000000000101001 %
1(
#426
0(
#431
b00000000000000101010 %
1(
#436
0(
#441
b00000000000000101011 %
1(
#446
0(
#451
b00000000000000101100 %
1(
#456
0(
#461
b00000000000000101101 %
1(
#466
0(
#471
b00000000000000101110 %
1(
#476
0(
#481
b00000000000000101111 %
1(
#486
0(
#491
b00000000000000110000 %
1(
#496
0(
#501
b00000000000000110001 %
1(
#506
0(
#511
b00000000000000110010 %
1(
#516
0(
#521
b00000000000000110011 %
1(
#526
0(
#531
b00000000000000110100 %
1(
#536
0(
#541
b00000000000000110101 %
1(
#546
0(
#551
b00000000000000110110 %
1(
#556
0(
#561
b00000000000000110111 %
1(
#566
0(
#571
b00000000000000111000 %
1(
#576
0(
#581
b00000000000000111001 %
1(
#586
0(
#591
b00000000000000111010 %
1(
#596
0(
#601
b00000000000000111011 %
1(
#606
0(
#611
b00000000000000111100 %
1(
#616
0(
#621
b00000000000000111101 %
1(
#626
0(
#631
b00000000000000111110 %
1(
#636
0(
#641
b00000000000000111111 %
1(
#646
0(
#651
b00000000000001000000 %
1(
#656
0(
#661
b00000000000001000001 %
1(
#666
0(
#671
b00000000000001000010 %
1(
#676
0(
#681
b00000000000001000011 %
1(
#686
0(
#691
b00000000000001000100 %
1(
#696
0(
#701
b00000000000001000101 %
1(
#706
0(
#711
b00000000000001000110 %
1(
#716
0(
#721
b00000000000001000111 %
1(
#726
0(
#731
b00000000000001001000 %
1(
#736
0(
#741
b00000000000001001001 %
1(
#746
0(
#751
b00000000000001001010 %
1(
#756
0(
#761
b00000000000001001011 %
1(
#766
0(
#771
b00000000000001001100 %
1(
#776
0(
#781
b00000000000001001101 %
1(
#786
0(
#791
b00000000000001001110 %
1(
#796
0(
#801
b00000000000001001111 %
1(
#806
0(
#811
b00000000000001010000 %
1(
#816
0(
#821
b00000000000001010001 %
1(
#826
0(
#831
b00000000000001010010 %
1(
#836
0(
#841
b00000000000001010011 %
1(
#846
0(
#851
b00000000000001010100 %
1(
#856
0(
#861
b00000000000001010101 %
1(
#866
0(
#871
b00000000000001010110 %
1(
#876
0(
#881
b00000000000001010111 %
1(
#886
0(
#891
b00000000000001011000 %
1(
#896
0(
#901
b00000000000001011001 %
1(
#906
0(
#911
b00000000000001011010 %
1(
#916
0(
#921
b00000000000001011011 %
1(
#926
0(
#931
b00000000000001011100 %
1(
#936
0(
#941
b00000000000001011101 %
1(
#946
0(
#951
b00000000000001011110 %
1(
#956
0(
#961
b00000000000001011111 %
1(
#966
0(
#971
b00000000000001100000 %
1(
#976
0(
#981
b00000000000001100001 %
1(
#986
0(
#991
b00000000000001100010 %
1(
#996
0(
#1001
b00000000000001100011 %
1(
#1006
0(
#1011
b00000000000001100100 %
1(
#1016
0(
#1021
b00000000000001100101 %
1(
#1026
0(
#1031
b00000000000001100110 %
1(
#1036
0(
#1041
b00000000000001100111 %
1(
#1046
0(
#1051
b00000000000000000000 %
b0001 '
b11110101010 +
1(
#1056
0(
#1061
b00000000000000000001 %
1(
#1066
0(
#1071
b00000000000000000010 %
1(
#1076
0(
#1081
b00000000000000000011 %
1(
#1086
0(
#1091
b00000000000000000100 %
1(
#1096
0(
#1101
b00000000000000000101 %
1(
#1106
0(
#1111
b00000000000000000110 %
1(
#1116
0(
#1121
b00000000000000000111 %
1(
#1126
0(
#1131
b00000000000000001000 %
1(
#1136
0(
#1141
b00000000000000001001 %
1(
#1146
0(
#1151
b00000000000000001010 %
1(
#1156
0(
#1161
b00000000000000001011 %
1(
#1166
0(
#1171
b00000000000000001100 %
1(
#1176
0(
#1181
b00000000000000001101 %
1(
#1186
0(
#1191
b00000000000000001110 %
1(
#1196
0(
#1201
b00000000000000001111 %
1(
#1206
0(
#1211
b00000000000000010000 %
1(
#1216
0(
#1221
b00000000000000010001 %
1(
#1226
0(
#1231
b00000000000000010010 %
1(
#1236
0(
#1241
b00000000000000010011 %
1(
#1246
0(
#1251
b00000000000000010100 %
1(
#1256
0(
#1261
b00000000000000010101 %
1(
#1266
0(
#1271
b00000000000000010110 %
1(
#1276
0(
#1281
b00000000000000010111 %
1(
#1286
0(
#1291
b00000000000000011000 %
1(
#1296
0(
#1301
b00000000000000011001 %
1(
#1306
0(
#1311
b00000000000000011010 %
1(
#1316
0(
#1321
b00000000000000011011 %
1(
#1326
0(
#1331
b00000000000000011100 %
1(
#1336
0(
#1341
b00000000000000011101 %
1(
#1346
0(
#1351
b00000000000000011110 %
1(
#1356
0(
#1361
b00000000000000011111 %
1(
#1366
0(
#1371
b00000000000000100000 %
1(
#1376
0(
#1381
b00000000000000100001 %
1(
#1386
0(
#1391
b00000000000000100010 %
1(
#1396
0(
#1401
b00000000000000100011 %
1(
#1406
0(
#1411
b00000000000000100100 %
1(
#1416
0(
#1421
b00000000000000100101 %
1(
#1426
0(
#1431
b00000000000000100110 %
1(
#1436
0(
#1441
b00000000000000100111 %
1(
#1446
0(
#1451
b00000000000000101000 %
1(
#1456
0(
#1461
b00000000000000101001 %
1(
#1466
0(
#1471
b00000000000000101010 %
1(
#1476
0(
#1481
b00000000000000101011 %
1(
#1486
0(
#1491
b00000000000000101100 %
1(
#1496
0(
#1501
b00000000000000101101 %
1(
#1506
0(
#1511
b00000000000000101110 %
1(
#1516
0(
#1521
b00000000000000101111 %
1(
#1526
0(
#1531
b00000000000000110000 %
1(
#1536
0(
#1541
b00000000000000110001 %
1(
#1546
0(
#1551
b00000000000000110010 %
1(
#1556
0(
#1561
b00000000000000110011 %
1(
#1566
0(
#1571
b00000000000000110100 %
1(
#1576
0(
#1581
b00000000000000110101 %
1(
#1586
0(
#1591
b00000000000000110110 %
1(
#1596
0(
#1601
b00000000000000110111 %
1(
#1606
0(
#1611
b00000000000000111000 %
1(
#1616
0(
#1621
b00000000000000111001 %
1(
#1626
0(
#1631
b00000000000000111010 %
1(
#1636
0(
#1641
b00000000000000111011 %
1(
#1646
0(
#1651
b00000000000000111100 %
1(
#1656
0(
#1661
b00000000000000111101 %
1(
#1666
0(
#1671
b00000000000000111110 %
1(
#1676
0(
#1681
b00000000000000111111 %
1(
#1686
0(
#1691
b00000000000001000000 %
1(
#1696
0(
#1701
b00000000000001000001 %
1(
#1706
0(
#1711
b00000000000001000010 %
1(
#1716
0(
#1721
b00000000000001000011 %
1(
#1726
0(
#1731
b00000000000001000100 %
1(
#1736
0(
#1741
b00000000000001000101 %
1(
#1746
0(
#1751
b00000000000001000110 %
1(
#1756
0(
#1761
b00000000000001000111 %
1(
#1766
0(
#1771
b00000000000001001000 %
1(
#1776
0(
#1781
b00000000000001001001 %
1(
#1786
0(
#1791
b00000000000001001010 %
1(
#1796
0(
#1801
b00000000000001001011 %
1(
#1806
0(
#1811
b00000000000001001100 %
1(
#1816
0(
#1821
b00000000000001001101 %
1(
#1826
0(
#1831
b00000000000001001110 %
1(
#1836
0(
#1841
b00000000000001001111 %
1(
#1846
0(
#1851
b00000000000001010000 %
1(
#1856
0(
#1861
b00000000000001010001 %
1(
#1866
0(
#1871
b00000000000001010010 %
1(
#1876
0(
#1881
b00000000000001010011 %
1(
#1886
0(
#1891
b00000000000001010100 %
1(
#1896
0(
#1901
b00000000000001010101 %
1(
#1906
0(
#1911
b00000000000001010110 %
1(
#1916
0(
#1921
b00000000000001010111 %
1(
#1926
0(
#1931
b00000000000001011000 %
1(
#1936
0(
#1941
b00000000000001011001 %
1(
#1946
0(
#1951
b00000000000001011010 %
1(
#1956
0(
#1961
b00000000000001011011 %
1(
#1966
0(
#1971
b00000000000001011100 %
1(
#1976
0(
#1981
b00000000000001011101 %
1(
#1986
0(
#1991
b00000000000001011110 %
1(
#1996
0(
#2001
b00000000000001011111 %
1(
#2006
0(
#2011
b00000000000001100000 %
1(
#2016
0(
#2021
b00000000000001100001 %
1(
#2026
0(
#2031
b00000000000001100010 %
1(
#2036
0(
#2041
b00000000000001100011 %
1(
#2046
0(
#2051
b00000000000001100100 %
1(
#2056
0(
#2061
b00000000000001100101 %
1(
#2066
0(
#2071
b00000000000001100110 %
1(
#2076
0(
#2081
b00000000000001100111 %
1(
#2086
0(
#2091
b00000000000000000000 %
b0010 '
b11111010101 +
1(
1)
#2096
0(
#2101
b00000000000000000001 %
1(
#2106
0(
#2111
b00000000000000000010 %
1(
#2116
0(
#2121
b00000000000000000011 %
1(
#2126
0(
#2131
b00000000000000000100 %
1(
#2136
0(
#2141
b00000000000000000101 %
1(
#2146
0(
#2151
b00000000000000000110 %
1(
#2156
0(
#2161
b00000000000000000111 %
1(
#2166
0(
#2171
b00000000000000001000 %
1(
#2176
0(
#2181
b00000000000000001001 %
1(
#2186
0(
#2191
b00000000000000001010 %
1(
#2196
0(
#2201
b00000000000000001011 %
1(
#2206
0(
#2211
b00000000000000001100 %
1(
#2216
0(
#2221
b00000000000000001101 %
1(
#2226
0(
#2231
b00000000000000001110 %
1(
#2236
0(
#2241
b00000000000000001111 %
1(
#2246
0(
#2251
b00000000000000010000 %
1(
#2256
0(
#2261
b00000000000000010001 %
1(
#2266
0(
#2271
b00000000000000010010 %
1(
#2276
0(
#2281
b00000000000000010011 %
1(
#2286
0(
#2291
b00000000000000010100 %
1(
#2296
0(
#2301
b00000000000000010101 %
1(
#2306
0(
#2311
b00000000000000010110 %
1(
#2316
0(
#2321
b00000000000000010111 %
1(
#2326
0(
#2331
b00000000000000011000 %
1(
#2336
0(
#2341
b00000000000000011001 %
1(
#2346
0(
#2351
b00000000000000011010 %
1(
#2356
0(
#2361
b00000000000000011011 %
1(
#2366
0(
#2371
b00000000000000011100 %
1(
#2376
0(
#2381
b00000000000000011101 %
1(
#2386
0(
#2391
b00000000000000011110 %
1(
#2396
0(
#2401
b00000000000000011111 %
1(
#2406
0(
#2411
b00000000000000100000 %
1(
#2416
0(
#2421
b00000000000000100001 %
1(
#2426
0(
#2431
b00000000000000100010 %
1(
#2436
0(
#2441
b00000000000000100011 %
1(
#2446
0(
#2451
b00000000000000100100 %
1(
#2456
0(
#2461
b00000000000000100101 %
1(
#2466
0(
#2471
b00000000000000100110 %
1(
#2476
0(
#2481
b00000000000000100111 %
1(
#2486
0(
#2491
b00000000000000101000 %
1(
#2496
0(
#2501
b00000000000000101001 %
1(
#2506
0(
#2511
b00000000000000101010 %
1(
#2516
0(
#2521
b00000000000000101011 %
1(
#2526
0(
#2531
b00000000000000101100 %
1(
#2536
0(
#2541
b00000000000000101101 %
1(
#2546
0(
#2551
b00000000000000101110 %
1(
#2556
0(
#2561
b00000000000000101111 %
1(
#2566
0(
#2571
b00000000000000110000 %
1(
#2576
0(
#2581
b00000000000000110001 %
1(
#2586
0(
#2591
b00000000000000110010 %
1(
#2596
0(
#2601
b00000000000000110011 %
1(
#2606
0(
#2611
b00000000000000110100 %
1(
#2616
0(
#2621
b00000000000000110101 %
1(
#2626
0(
#2631
b00000000000000110110 %
1(
#2636
0(
#2641
b00000000000000110111 %
1(
#2646
0(
#2651
b00000000000000111000 %
1(
#2656
0(
#2661
b00000000000000111001 %
1(
#2666
0(
#2671
b00000000000000111010 %
1(
#2676
0(
#2681
b00000000000000111011 %
1(
#2686
0(
#2691
b00000000000000111100 %
1(
#2696
0(
#2701
b00000000000000111101 %
1(
#2706
0(
#2711
b00000000000000111110 %
1(
#2716
0(
#2721
b00000000000000111111 %
1(
#2726
0(
#2731
b00000000000001000000 %
1(
#2736
0(
#2741
b00000000000001000001 %
1(
#2746
0(
#2751
b00000000000001000010 %
1(
#2756
0(
#2761
b00000000000001000011 %
1(
#2766
0(
#2771
b00000000000001000100 %
1(
#2776
0(
#2781
b00000000000001000101 %
1(
#2786
0(
#2791
b00000000000001000110 %
1(
#2796
0(
#2801
b00000000000001000111 %
1(
#2806
0(
#2811
b00000000000001001000 %
1(
#2816
0(
#2821
b00000000000001001001 %
1(
#2826
0(
#2831
b00000000000001001010 %
1(
#2836
0(
#2841
b00000000000001001011 %
1(
#2846
0(
#2851
b00000000000001001100 %
1(
#2856
0(
#2861
b00000000000001001101 %
1(
#2866
0(
#2871
b00000000000001001110 %
1(
#2876
0(
#2881
b00000000000001001111 %
1(
#2886
0(
#2891
b00000000000001010000 %
1(
#2896
0(
#2901
b00000000000001010001 %
1(
#2906
0(
#2911
b00000000000001010010 %
1(
#2916
0(
#2921
b00000000000001010011 %
1(
#2926
0(
#2931
b00000000000001010100 %
1(
#2936
0(
#2941
b00000000000001010101 %
1(
#2946
0(
#2951
b00000000000001010110 %
1(
#2956
0(
#2961
b00000000000001010111 %
1(
#2966
0(
#2971
b00000000000001011000 %
1(
#2976
0(
#2981
b00000000000001011001 %
1(
#2986
0(
#2991
b00000000000001011010 %
1(
#2996
0(
#3001
b00000000000001011011 %
1(
#3006
0(
#3011
b00000000000001011100 %
1(
#3016
0(
#3021
b00000000000001011101 %
1(
#3026
0(
#3031
b00000000000001011110 %
1(
#3036
0(
#3041
b00000000000001011111 %
1(
#3046
0(
#3051
b00000000000001100000 %
1(
#3056
0(
#3061
b00000000000001100001 %
1(
#3066
0(
#3071
b00000000000001100010 %
1(
#3076
0(
#3081
b00000000000001100011 %
1(
#3086
0(
#3091
b00000000000001100100 %
1(
#3096
0(
#3101
b00000000000001100101 %
1(
#3106
0(
#3111
b00000000000001100110 %
1(
#3116
0(
#3121
b00000000000001100111 %
1(
#3126
0(
#3131
b00000000000000000000 %
b0011 '
b11111101010 +
1(
0)
#3136
0(
#3141
b00000000000000000001 %
1(
#3146
0(
#3151
b00000000000000000010 %
1(
#3156
0(
#3161
b00000000000000000011 %
1(
#3166
0(
#3171
b00000000000000000100 %
1(
#3176
0(
#3181
b00000000000000000101 %
1(
#3186
0(
#3191
b00000000000000000110 %
1(
#3196
0(
#3201
b00000000000000000111 %
1(
#3206
0(
#3211
b00000000000000001000 %
1(
#3216
0(
#3221
b00000000000000001001 %
1(
#3226
0(
#3231
b00000000000000001010 %
1(
#3236
0(
#3241
b00000000000000001011 %
1(
#3246
0(
#3251
b00000000000000001100 %
1(
#3256
0(
#3261
b00000000000000001101 %
1(
#3266
0(
#3271
b00000000000000001110 %
1(
#3276
0(
#3281
b00000000000000001111 %
1(
#3286
0(
#3291
b00000000000000010000 %
1(
#3296
0(
#3301
b00000000000000010001 %
1(
#3306
0(
#3311
b00000000000000010010 %
1(
#3316
0(
#3321
b00000000000000010011 %
1(
#3326
0(
#3331
b00000000000000010100 %
1(
#3336
0(
#3341
b00000000000000010101 %
1(
#3346
0(
#3351
b00000000000000010110 %
1(
#3356
0(
#3361
b00000000000000010111 %
1(
#3366
0(
#3371
b00000000000000011000 %
1(
#3376
0(
#3381
b00000000000000011001 %
1(
#3386
0(
#3391
b00000000000000011010 %
1(
#3396
0(
#3401
b00000000000000011011 %
1(
#3406
0(
#3411
b00000000000000011100 %
1(
#3416
0(
#3421
b00000000000000011101 %
1(
#3426
0(
#3431
b00000000000000011110 %
1(
#3436
0(
#3441
b00000000000000011111 %
1(
#3446
0(
#3451
b00000000000000100000 %
1(
#3456
0(
#3461
b00000000000000100001 %
1(
#3466
0(
#3471
b00000000000000100010 %
1(
#3476
0(
#3481
b00000000000000100011 %
1(
#3486
0(
#3491
b00000000000000100100 %
1(
#3496
0(
#3501
b00000000000000100101 %
1(
#3506
0(
#3511
b00000000000000100110 %
1(
#3516
0(
#3521
b00000000000000100111 %
1(
#3526
0(
#3531
b00000000000000101000 %
1(
#3536
0(
#3541
b00000000000000101001 %
1(
#3546
0(
#3551
b00000000000000101010 %
1(
#3556
0(
#3561
b00000000000000101011 %
1(
#3566
0(
#3571
b00000000000000101100 %
1(
#3576
0(
#3581
b00000000000000101101 %
1(
#3586
0(
#3591
b00000000000000101110 %
1(
#3596
0(
#3601
b00000000000000101111 %
1(
#3606
0(
#3611
b00000000000000110000 %
1(
#3616
0(
#3621
b00000000000000110001 %
1(
#3626
0(
#3631
b00000000000000110010 %
1(
#3636
0(
#3641
b00000000000000110011 %
1(
#3646
0(
#3651
b00000000000000110100 %
1(
#3656
0(
#3661
b00000000000000110101 %
1(
#3666
0(
#3671
b00000000000000110110 %
1(
#3676
0(
#3681
b00000000000000110111 %
1(
#3686
0(
#3691
b00000000000000111000 %
1(
#3696
0(
#3701
b00000000000000111001 %
1(
#3706
0(
#3711
b00000000000000111010 %
1(
#3716
0(
#3721
b00000000000000111011 %
1(
#3726
0(
#3731
b00000000000000111100 %
1(
#3736
0(
#3741
b00000000000000111101 %
1(
#3746
0(
#3751
b00000000000000111110 %
1(
#3756
0(
#3761
b00000000000000111111 %
1(
#3766
0(
#3771
b00000000000001000000 %
1(
#3776
0(
#3781
b00000000000001000001 %
1(
#3786
0(
#3791
b00000000000001000010 %
1(
#3796
0(
#3801
b00000000000001000011 %
1(
#3806
0(
#3811
b00000000000001000100 %
1(
#3816
0(
#3821
b00000000000001000101 %
1(
#3826
0(
#3831
b00000000000001000110 %
1(
#3836
0(
#3841
b00000000000001000111 %
1(
#3846
0(
#3851
b00000000000001001000 %
1(
#3856
0(
#3861
b00000000000001001001 %
1(
#3866
0(
#3871
b00000000000001001010 %
1(
#3876
0(
#3881
b00000000000001001011 %
1(
#3886
0(
#3891
b00000000000001001100 %
1(
#3896
0(
#3901
b00000000000001001101 %
1(
#3906
0(
#3911
b00000000000001001110 %
1(
#3916
0(
#3921
b00000000000001001111 %
1(
#3926
0(
#3931
b00000000000001010000 %
1(
#3936
0(
#3941
b00000000000001010001 %
1(
#3946
0(
#3951
b00000000000001010010 %
1(
#3956
0(
#3961
b00000000000001010011 %
1(
#3966
0(
#3971
b00000000000001010100 %
1(
#3976
0(
#3981
b00000000000001010101 %
1(
#3986
0(
#3991
b00000000000001010110 %
1(
#3996
0(
#4001
b00000000000001010111 %
1(
#4006
0(
#4011
b00000000000001011000 %
1(
#4016
0(
#4021
b00000000000001011001 %
1(
#4026
0(
#4031
b00000000000001011010 %
1(
#4036
0(
#4041
b00000000000001011011 %
1(
#4046
0(
#4051
b00000000000001011100 %
1(
#4056
0(
#4061
b00000000000001011101 %
1(
#4066
0(
#4071
b00000000000001011110 %
1(
#4076
0(
#4081
b00000000000001011111 %
1(
#4086
0(
#4091
b00000000000001100000 %
1(
#4096
0(
#4101
b00000000000001100001 %
1(
#4106
0(
#4111
b00000000000001100010 %
1(
#4116
0(
#4121
b00000000000001100011 %
1(
#4126
0(
#4131
b00000000000001100100 %
1(
#4136
0(
#4141
b00000000000001100101 %
1(
#4146
0(
#4151
b00000000000001100110 %
1(
#4156
0(
#4161
b00000000000001100111 %
1(
#4166
0(
#4171
b00000000000000000000 %
b0100 '
b11111110101 +
1(
1)
#4176
0(
#4181
b00000000000000000001 %
1(
#4186
0(
#4191
b00000000000000000010 %
1(
#4196
0(
#4201
b00000000000000000011 %
1(
#4206
0(
#4211
b00000000000000000100 %
1(
#4216
0(
#4221
b00000000000000000101 %
1(
#4226
0(
#4231
b00000000000000000110 %
1(
#4236
0(
#4241
b00000000000000000111 %
1(
#4246
0(
#4251
b00000000000000001000 %
1(
#4256
0(
#4261
b00000000000000001001 %
1(
#4266
0(
#4271
b00000000000000001010 %
1(
#4276
0(
#4281
b00000000000000001011 %
1(
#4286
0(
#4291
b00000000000000001100 %
1(
#4296
0(
#4301
b00000000000000001101 %
1(
#4306
0(
#4311
b00000000000000001110 %
1(
#4316
0(
#4321
b00000000000000001111 %
1(
#4326
0(
#4331
b00000000000000010000 %
1(
#4336
0(
#4341
b00000000000000010001 %
1(
#4346
0(
#4351
b00000000000000010010 %
1(
#4356
0(
#4361
b00000000000000010011 %
1(
#4366
0(
#4371
b00000000000000010100 %
1(
#4376
0(
#4381
b00000000000000010101 %
1(
#4386
0(
#4391
b00000000000000010110 %
1(
#4396
0(
#4401
b00000000000000010111 %
1(
#4406
0(
#4411
b00000000000000011000 %
1(
#4416
0(
#4421
b00000000000000011001 %
1(
#4426
0(
#4431
b00000000000000011010 %
1(
#4436
0(
#4441
b00000000000000011011 %
1(
#4446
0(
#4451
b00000000000000011100 %
1(
#4456
0(
#4461
b00000000000000011101 %
1(
#4466
0(
#4471
b00000000000000011110 %
1(
#4476
0(
#4481
b00000000000000011111 %
1(
#4486
0(
#4491
b00000000000000100000 %
1(
#4496
0(
#4501
b00000000000000100001 %
1(
#4506
0(
#4511
b00000000000000100010 %
1(
#4516
0(
#4521
b00000000000000100011 %
1(
#4526
0(
#4531
b00000000000000100100 %
1(
#4536
0(
#4541
b00000000000000100101 %
1(
#4546
0(
#4551
b00000000000000100110 %
1(
#4556
0(
#4561
b00000000000000100111 %
1(
#4566
0(
#4571
b00000000000000101000 %
1(
#4576
0(
#4581
b00000000000000101001 %
1(
#4586
0(
#4591
b00000000000000101010 %
1(
#4596
0(
#4601
b00000000000000101011 %
1(
#4606
0(
#4611
b00000000000000101100 %
1(
#4616
0(
#4621
b00000000000000101101 %
1(
#4626
0(
#4631
b00000000000000101110 %
1(
#4636
0(
#4641
b00000000000000101111 %
1(
#4646
0(
#4651
b00000000000000110000 %
1(
#4656
0(
#4661
b00000000000000110001 %
1(
#4666
0(
#4671
b00000000000000110010 %
1(
#4676
0(
#4681
b00000000000000110011 %
1(
#4686
0(
#4691
b00000000000000110100 %
1(
#4696
0(
#4701
b00000000000000110101 %
1(
#4706
0(
#4711
b00000000000000110110 %
1(
#4716
0(
#4721
b00000000000000110111 %
1(
#4726
0(
#4731
b00000000000000111000 %
1(
#4736
0(
#4741
b00000000000000111001 %
1(
#4746
0(
#4751
b00000000000000111010 %
1(
#4756
0(
#4761
b00000000000000111011 %
1(
#4766
0(
#4771
b00000000000000111100 %
1(
#4776
0(
#4781
b00000000000000111101 %
1(
#4786
0(
#4791
b00000000000000111110 %
1(
#4796
0(
#4801
b00000000000000111111 %
1(
#4806
0(
#4811
b00000000000001000000 %
1(
#4816
0(
#4821
b00000000000001000001 %
1(
#4826
0(
#4831
b00000000000001000010 %
1(
#4836
0(
#4841
b00000000000001000011 %
1(
#4846
0(
#4851
b00000000000001000100 %
1(
#4856
0(
#4861
b00000000000001000101 %
1(
#4866
0(
#4871
b00000000000001000110 %
1(
#4876
0(
#4881
b00000000000001000111 %
1(
#4886
0(
#4891
b00000000000001001000 %
1(
#4896
0(
#4901
b00000000000001001001 %
1(
#4906
0(
#4911
b00000000000001001010 %
1(
#4916
0(
#4921
b00000000000001001011 %
1(
#4926
0(
#4931
b00000000000001001100 %
1(
#4936
0(
#4941
b00000000000001001101 %
1(
#4946
0(
#4951
b00000000000001001110 %
1(
#4956
0(
#4961
b00000000000001001111 %
1(
#4966
0(
#4971
b00000000000001010000 %
1(
#4976
0(
#4981
b00000000000001010001 %
1(
#4986
0(
#4991
b00000000000001010010 %
1(
#4996
0(
#5001
b00000000000001010011 %
1(
#5006
0(
#5011
b00000000000001010100 %
1(
#5016
0(
#5021
b00000000000001010101 %
1(
#5026
0(
#5031
b00000000000001010110 %
1(
#5036
0(
#5041
b00000000000001010111 %
1(
#5046
0(
#5051
b00000000000001011000 %
1(
#5056
0(
#5061
b00000000000001011001 %
1(
#5066
0(
#5071
b00000000000001011010 %
1(
#5076
0(
#5081
b00000000000001011011 %
1(
#5086
0(
#5091
b00000000000001011100 %
1(
#5096
0(
#5101
b00000000000001011101 %
1(
#5106
0(
#5111
b00000000000001011110 %
1(
#5116
0(
#5121
b00000000000001011111 %
1(
#5126
0(
#5131
b00000000000001100000 %
1(
#5136
0(
#5141
b00000000000001100001 %
1(
#5146
0(
#5151
b00000000000001100010 %
1(
#5156
0(
#5161
b00000000000001100011 %
1(
#5166
0(
#5171
b00000000000001100100 %
1(
#5176
0(
#5181
b00000000000001100101 %
1(
#5186
0(
#5191
b00000000000001100110 %
1(
#5196
0(
#5201
b00000000000001100111 %
1(
#5206
0(
#5211
b00000000000000000000 %
b0101 '
b11111111010 +
1(
0)
#5216
0(
#5221
b00000000000000000001 %
1(
#5226
0(
#5231
b00000000000000000010 %
1(
#5236
0(
#5241
b00000000000000000011 %
1(
#5246
0(
#5251
b00000000000000000100 %
1(
#5256
0(
#5261
b00000000000000000101 %
1(
#5266
0(
#5271
b00000000000000000110 %
1(
#5276
0(
#5281
b00000000000000000111 %
1(
#5286
0(
#5291
b00000000000000001000 %
1(
#5296
0(
#5301
b00000000000000001001 %
1(
#5306
0(
#5311
b00000000000000001010 %
1(
#5316
0(
#5321
b00000000000000001011 %
1(
#5326
0(
#5331
b00000000000000001100 %
1(
#5336
0(
#5341
b00000000000000001101 %
1(
#5346
0(
#5351
b00000000000000001110 %
1(
#5356
0(
#5361
b00000000000000001111 %
1(
#5366
0(
#5371
b00000000000000010000 %
1(
#5376
0(
#5381
b00000000000000010001 %
1(
#5386
0(
#5391
b00000000000000010010 %
1(
#5396
0(
#5401
b00000000000000010011 %
1(
#5406
0(
#5411
b00000000000000010100 %
1(
#5416
0(
#5421
b00000000000000010101 %
1(
#5426
0(
#5431
b00000000000000010110 %
1(
#5436
0(
#5441
b00000000000000010111 %
1(
#5446
0(
#5451
b00000000000000011000 %
1(
#5456
0(
#5461
b00000000000000011001 %
1(
#5466
0(
#5471
b00000000000000011010 %
1(
#5476
0(
#5481
b00000000000000011011 %
1(
#5486
0(
#5491
b00000000000000011100 %
1(
#5496
0(
#5501
b00000000000000011101 %
1(
#5506
0(
#5511
b00000000000000011110 %
1(
#5516
0(
#5521
b00000000000000011111 %
1(
#5526
0(
#5531
b00000000000000100000 %
1(
#5536
0(
#5541
b00000000000000100001 %
1(
#5546
0(
#5551
b00000000000000100010 %
1(
#5556
0(
#5561
b00000000000000100011 %
1(
#5566
0(
#5571
b00000000000000100100 %
1(
#5576
0(
#5581
b00000000000000100101 %
1(
#5586
0(
#5591
b00000000000000100110 %
1(
#5596
0(
#5601
b00000000000000100111 %
1(
#5606
0(
#5611
b00000000000000101000 %
1(
#5616
0(
#5621
b00000000000000101001 %
1(
#5626
0(
#5631
b00000000000000101010 %
1(
#5636
0(
#5641
b00000000000000101011 %
1(
#5646
0(
#5651
b00000000000000101100 %
1(
#5656
0(
#5661
b00000000000000101101 %
1(
#5666
0(
#5671
b00000000000000101110 %
1(
#5676
0(
#5681
b00000000000000101111 %
1(
#5686
0(
#5691
b00000000000000110000 %
1(
#5696
0(
#5701
b00000000000000110001 %
1(
#5706
0(
#5711
b00000000000000110010 %
1(
#5716
0(
#5721
b00000000000000110011 %
1(
#5726
0(
#5731
b00000000000000110100 %
1(
#5736
0(
#5741
b00000000000000110101 %
1(
#5746
0(
#5751
b00000000000000110110 %
1(
#5756
0(
#5761
b00000000000000110111 %
1(
#5766
0(
#5771
b00000000000000111000 %
1(
#5776
0(
#5781
b00000000000000111001 %
1(
#5786
0(
#5791
b00000000000000111010 %
1(
#5796
0(
#5801
b00000000000000111011 %
1(
#5806
0(
#5811
b00000000000000111100 %
1(
#5816
0(
#5821
b00000000000000111101 %
1(
#5826
0(
#5831
b00000000000000111110 %
1(
#5836
0(
#5841
b00000000000000111111 %
1(
#5846
0(
#5851
b00000000000001000000 %
1(
#5856
0(
#5861
b00000000000001000001 %
1(
#5866
0(
