uart_txrx/test_run_dir/DUT_should_pass/TxRx.vcd
$date
2024-01-12T11:23+0000
$end
$version
0.2
$end
$comment

$end
$timescale 1ns  $end
$scope module TxRx $end
 $var wire 1 % io_rxchannel_valid $end
 $var wire 1 * io_txchannel_valid $end
 $var wire 1 - io_rxchannel_ready $end
 $var wire 1 0 rxPart $end
 $var wire 1 3 clock $end
 $var wire 8 5 io_txchannel_data $end
 $var wire 1 ; io_txchannel_ready $end
 $var wire 1 < txPart $end
 $var wire 1 > reset $end
 $var wire 8 A io_rxchannel_data $end
  $scope module txPart $end
   $var wire 11 ! shiftReg $end
   $var wire 1 # io_txd $end
   $var wire 8 ( io_channel_data $end
   $var wire 1 ) stateReg $end
   $var wire 20 + clkCntReg $end
   $var wire 1 , io_channel_ready $end
   $var wire 1 . clock $end
   $var wire 1 / insert $end
   $var wire 4 1 bitCntReg $end
   $var wire 10 7 shiftReg_hi $end
   $var wire 1 8 reset $end
   $var wire 1 ? io_channel_valid $end
  $upscope $end
  $scope module rxPart $end
   $var wire 1 " io_channel_valid $end
   $var wire 1 $ clock $end
   $var wire 4 & bitCntReg $end
   $var wire 1 ' rxdReg $end
   $var wire 10 2 shiftReg $end
   $var wire 1 4 reset $end
   $var wire 1 6 rxdReg_REG $end
   $var wire 8 9 io_channel_data $end
   $var wire 20 : clkCntReg $end
   $var wire 2 = stateReg $end
   $var wire 1 @ io_rxd $end
  $upscope $end
$upscope $end
$enddefinitions $end
$dumpvars
0%
0;
0<
0'
b00 =
0>
06
b00000000000000000000 :
b00000000000 !
0"
b00000000 A
08
0#
03
04
b00000000 (
0-
0.
0/
b0000 1
b00000000 9
00
b00000000000000000000 +
b0000000000 7
0)
0?
0*
0@
b00000000 5
0,
b0000000000 2
0$
b0000 &
$end
#0
14
18
b1100000000 7
1>
1,
1;
#1
13
b11111111111 !
1.
1@
1#
b1111111111 2
1$
#6
03
1-
1?
04
0.
08
b10101010 5
1*
0$
b10101010 (
b1110101010 7
1/
0>
#11
13
b11101010100 !
1.
0@
0#
1$
16
b01 =
1)
#16
03
0?
0.
0*
0$
0/
#21
13
1.
1'
1$
06
b00000000000000000001 +
b00000000000000000001 :
0,
0;
#26
03
0.
0$
#31
13
1.
0'
1$
b00000000000000000010 +
b00000000000000000010 :
#36
03
0.
0$
#41
13
1.
1$
b00000000000000000011 +
b00000000000000000011 :
#46
03
0.
0$
#51
13
1.
1$
b00000000000000000100 +
b00000000000000000100 :
#56
03
0.
0$
#61
13
1.
1$
b00000000000000000101 +
b00000000000000000101 :
#66
03
0.
0$
#71
13
1.
1$
b00000000000000000110 +
b00000000000000000110 :
#76
03
0.
0$
#81
13
1.
1$
b00000000000000000111 +
b00000000000000000111 :
#86
03
0.
0$
#91
13
1.
1$
b00000000000000001000 +
b00000000000000001000 :
#96
03
0.
0$
#101
13
1.
1$
b00000000000000001001 +
b00000000000000001001 :
#106
03
0.
0$
#111
13
1.
1$
b00000000000000001010 +
b00000000000000001010 :
#116
03
0.
0$
#121
13
1.
1$
b00000000000000001011 +
b00000000000000001011 :
#126
03
0.
0$
#131
13
1.
1$
b00000000000000001100 +
b00000000000000001100 :
#136
03
0.
0$
#141
13
1.
1$
b00000000000000001101 +
b00000000000000001101 :
#146
03
0.
0$
#151
13
1.
1$
b00000000000000001110 +
b00000000000000001110 :
#156
03
0.
0$
#161
13
1.
1$
b00000000000000001111 +
b00000000000000001111 :
#166
03
0.
0$
#171
13
1.
1$
b00000000000000010000 +
b00000000000000010000 :
#176
03
0.
0$
#181
13
1.
1$
b00000000000000010001 +
b00000000000000010001 :
#186
03
0.
0$
#191
13
1.
1$
b00000000000000010010 +
b00000000000000010010 :
#196
03
0.
0$
#201
13
1.
1$
b00000000000000010011 +
b00000000000000010011 :
#206
03
0.
0$
#211
13
1.
1$
b00000000000000010100 +
b00000000000000010100 :
#216
03
0.
0$
#221
13
1.
1$
b00000000000000010101 +
b00000000000000010101 :
#226
03
0.
0$
#231
13
1.
1$
b00000000000000010110 +
b00000000000000010110 :
#236
03
0.
0$
#241
13
1.
1$
b00000000000000010111 +
b00000000000000010111 :
#246
03
0.
0$
#251
13
1.
1$
b00000000000000011000 +
b00000000000000011000 :
#256
03
0.
0$
#261
13
1.
1$
b00000000000000011001 +
b00000000000000011001 :
#266
03
0.
0$
#271
13
1.
1$
b00000000000000011010 +
b00000000000000011010 :
#276
03
0.
0$
#281
13
1.
1$
b00000000000000011011 +
b00000000000000011011 :
#286
03
0.
0$
#291
13
1.
1$
b00000000000000011100 +
b00000000000000011100 :
#296
03
0.
0$
#301
13
1.
1$
b00000000000000011101 +
b00000000000000011101 :
#306
03
0.
0$
#311
13
1.
1$
b00000000000000011110 +
b00000000000000011110 :
#316
03
0.
0$
#321
13
1.
1$
b00000000000000011111 +
b00000000000000011111 :
#326
03
0.
0$
#331
13
1.
1$
b00000000000000100000 +
b00000000000000100000 :
#336
03
0.
0$
#341
13
1.
1$
b00000000000000100001 +
b00000000000000100001 :
#346
03
0.
0$
#351
13
1.
1$
b00000000000000100010 +
b00000000000000100010 :
#356
03
0.
0$
#361
13
1.
1$
b00000000000000100011 +
b00000000000000100011 :
#366
03
0.
0$
#371
13
1.
1$
b00000000000000100100 +
b00000000000000100100 :
#376
03
0.
0$
#381
13
1.
1$
b00000000000000100101 +
b00000000000000100101 :
#386
03
0.
0$
#391
13
1.
1$
b00000000000000100110 +
b00000000000000100110 :
#396
03
0.
0$
#401
13
1.
1$
b00000000000000100111 +
b00000000000000100111 :
#406
03
0.
0$
#411
13
1.
1$
b00000000000000101000 +
b00000000000000101000 :
#416
03
0.
0$
#421
13
1.
1$
b00000000000000101001 +
b00000000000000101001 :
#426
03
0.
0$
#431
13
1.
1$
b00000000000000101010 +
b00000000000000101010 :
#436
03
0.
0$
#441
13
1.
1$
b00000000000000101011 +
b00000000000000101011 :
#446
03
0.
0$
#451
13
1.
1$
b00000000000000101100 +
b00000000000000101100 :
#456
03
0.
0$
#461
13
1.
1$
b00000000000000101101 +
b00000000000000101101 :
#466
03
0.
0$
#471
13
1.
1$
b00000000000000101110 +
b00000000000000101110 :
#476
03
0.
0$
#481
13
1.
1$
b00000000000000101111 +
b00000000000000101111 :
#486
03
0.
0$
#491
13
1.
1$
b00000000000000110000 +
b00000000000000110000 :
#496
03
0.
0$
#501
13
1.
1$
b00000000000000110001 +
b00000000000000110001 :
#506
03
0.
0$
#511
13
1.
1$
b00000000000000110010 +
b00000000000000110010 :
#516
03
0.
0$
#521
13
1.
1$
b00000000000000110011 +
b00000000000000110011 :
#526
03
0.
0$
#531
13
1.
b0001 &
1$
b10 =
b00000000000000000000 :
b00000000000000110100 +
#536
03
0.
0$
#541
13
1.
1$
b00000000000000110101 +
b00000000000000000001 :
#546
03
0.
0$
#551
13
1.
1$
b00000000000000110110 +
b00000000000000000010 :
#556
03
0.
0$
#561
13
1.
1$
b00000000000000110111 +
b00000000000000000011 :
#566
03
0.
0$
#571
13
1.
1$
b00000000000000111000 +
b00000000000000000100 :
#576
03
0.
0$
#581
13
1.
1$
b00000000000000111001 +
b00000000000000000101 :
#586
03
0.
0$
#591
13
1.
1$
b00000000000000111010 +
b00000000000000000110 :
#596
03
0.
0$
#601
13
1.
1$
b00000000000000111011 +
b00000000000000000111 :
#606
03
0.
0$
#611
13
1.
1$
b00000000000000111100 +
b00000000000000001000 :
#616
03
0.
0$
#621
13
1.
1$
b00000000000000111101 +
b00000000000000001001 :
#626
03
0.
0$
#631
13
1.
1$
b00000000000000111110 +
b00000000000000001010 :
#636
03
0.
0$
#641
13
1.
1$
b00000000000000111111 +
b00000000000000001011 :
#646
03
0.
0$
#651
13
1.
1$
b00000000000001000000 +
b00000000000000001100 :
#656
03
0.
0$
#661
13
1.
1$
b00000000000001000001 +
b00000000000000001101 :
#666
03
0.
0$
#671
13
1.
1$
b00000000000001000010 +
b00000000000000001110 :
#676
03
0.
0$
#681
13
1.
1$
b00000000000001000011 +
b00000000000000001111 :
#686
03
0.
0$
#691
13
1.
1$
b00000000000001000100 +
b00000000000000010000 :
#696
03
0.
0$
#701
13
1.
1$
b00000000000001000101 +
b00000000000000010001 :
#706
03
0.
0$
#711
13
1.
1$
b00000000000001000110 +
b00000000000000010010 :
#716
03
0.
0$
#721
13
1.
1$
b00000000000001000111 +
b00000000000000010011 :
#726
03
0.
0$
#731
13
1.
1$
b00000000000001001000 +
b00000000000000010100 :
#736
03
0.
0$
#741
13
1.
1$
b00000000000001001001 +
b00000000000000010101 :
#746
03
0.
0$
#751
13
1.
1$
b00000000000001001010 +
b00000000000000010110 :
#756
03
0.
0$
#761
13
1.
1$
b00000000000001001011 +
b00000000000000010111 :
#766
03
0.
0$
#771
13
1.
1$
b00000000000001001100 +
b00000000000000011000 :
#776
03
0.
0$
#781
13
1.
1$
b00000000000001001101 +
b00000000000000011001 :
#786
03
0.
0$
#791
13
1.
1$
b00000000000001001110 +
b00000000000000011010 :
#796
03
0.
0$
#801
13
1.
1$
b00000000000001001111 +
b00000000000000011011 :
#806
03
0.
0$
#811
13
1.
1$
b00000000000001010000 +
b00000000000000011100 :
#816
03
0.
0$
#821
13
1.
1$
b00000000000001010001 +
b00000000000000011101 :
#826
03
0.
0$
#831
13
1.
1$
b00000000000001010010 +
b00000000000000011110 :
#836
03
0.
0$
#841
13
1.
1$
b00000000000001010011 +
b00000000000000011111 :
#846
03
0.
0$
#851
13
1.
1$
b00000000000001010100 +
b00000000000000100000 :
#856
03
0.
0$
#861
13
1.
1$
b00000000000001010101 +
b00000000000000100001 :
#866
03
0.
0$
#871
13
1.
1$
b00000000000001010110 +
b00000000000000100010 :
#876
03
0.
0$
#881
13
1.
1$
b00000000000001010111 +
b00000000000000100011 :
#886
03
0.
0$
#891
13
1.
1$
b00000000000001011000 +
b00000000000000100100 :
#896
03
0.
0$
#901
13
1.
1$
b00000000000001011001 +
b00000000000000100101 :
#906
03
0.
0$
#911
13
1.
1$
b00000000000001011010 +
b00000000000000100110 :
#916
03
0.
0$
#921
13
1.
1$
b00000000000001011011 +
b00000000000000100111 :
#926
03
0.
0$
#931
13
1.
1$
b00000000000001011100 +
b00000000000000101000 :
#936
03
0.
0$
#941
13
1.
1$
b00000000000001011101 +
b00000000000000101001 :
#946
03
0.
0$
#951
13
1.
1$
b00000000000001011110 +
b00000000000000101010 :
#956
03
0.
0$
#961
13
1.
1$
b00000000000001011111 +
b00000000000000101011 :
#966
03
0.
0$
#971
13
1.
1$
b00000000000001100000 +
b00000000000000101100 :
#976
03
0.
0$
#981
13
1.
1$
b00000000000001100001 +
b00000000000000101101 :
#986
03
0.
0$
#991
13
1.
1$
b00000000000001100010 +
b00000000000000101110 :
#996
03
0.
0$
#1001
13
1.
1$
b00000000000001100011 +
b00000000000000101111 :
#1006
03
0.
0$
#1011
13
1.
1$
b00000000000001100100 +
b00000000000000110000 :
#1016
03
0.
0$
#1021
13
1.
1$
b00000000000001100101 +
b00000000000000110001 :
#1026
03
0.
0$
#1031
13
1.
1$
b00000000000001100110 +
b00000000000000110010 :
#1036
03
0.
0$
#1041
13
1.
1$
b00000000000001100111 +
b00000000000000110011 :
#1046
03
0.
0$
#1051
13
b11110101010 !
b0001 1
1.
1$
b00000000000000000000 +
b00000000000000110100 :
#1056
03
0.
0$
#1061
13
1.
1$
b00000000000000000001 +
b00000000000000110101 :
#1066
03
0.
0$
#1071
13
1.
1$
b00000000000000000010 +
b00000000000000110110 :
#1076
03
0.
0$
#1081
13
1.
1$
b00000000000000000011 +
b00000000000000110111 :
#1086
03
0.
0$
#1091
13
1.
1$
b00000000000000000100 +
b00000000000000111000 :
#1096
03
0.
0$
#1101
13
1.
1$
b00000000000000000101 +
b00000000000000111001 :
#1106
03
0.
0$
#1111
13
1.
1$
b00000000000000000110 +
b00000000000000111010 :
#1116
03
0.
0$
#1121
13
1.
1$
b00000000000000000111 +
b00000000000000111011 :
#1126
03
0.
0$
#1131
13
1.
1$
b00000000000000001000 +
b00000000000000111100 :
#1136
03
0.
0$
#1141
13
1.
1$
b00000000000000001001 +
b00000000000000111101 :
#1146
03
0.
0$
#1151
13
1.
1$
b00000000000000001010 +
b00000000000000111110 :
#1156
03
0.
0$
#1161
13
1.
1$
b00000000000000001011 +
b00000000000000111111 :
#1166
03
0.
0$
#1171
13
1.
1$
b00000000000000001100 +
b00000000000001000000 :
#1176
03
0.
0$
#1181
13
1.
1$
b00000000000000001101 +
b00000000000001000001 :
#1186
03
0.
0$
#1191
13
1.
1$
b00000000000000001110 +
b00000000000001000010 :
#1196
03
0.
0$
#1201
13
1.
1$
b00000000000000001111 +
b00000000000001000011 :
#1206
03
0.
0$
#1211
13
1.
1$
b00000000000000010000 +
b00000000000001000100 :
#1216
03
0.
0$
#1221
13
1.
1$
b00000000000000010001 +
b00000000000001000101 :
#1226
03
0.
0$
#1231
13
1.
1$
b00000000000000010010 +
b00000000000001000110 :
#1236
03
0.
0$
#1241
13
1.
1$
b00000000000000010011 +
b00000000000001000111 :
#1246
03
0.
0$
#1251
13
1.
1$
b00000000000000010100 +
b00000000000001001000 :
#1256
03
0.
0$
#1261
13
1.
1$
b00000000000000010101 +
b00000000000001001001 :
#1266
03
0.
0$
#1271
13
1.
1$
b00000000000000010110 +
b00000000000001001010 :
#1276
03
0.
0$
#1281
13
1.
1$
b00000000000000010111 +
b00000000000001001011 :
#1286
03
0.
0$
#1291
13
1.
1$
b00000000000000011000 +
b00000000000001001100 :
#1296
03
0.
0$
#1301
13
1.
1$
b00000000000000011001 +
b00000000000001001101 :
#1306
03
0.
0$
#1311
13
1.
1$
b00000000000000011010 +
b00000000000001001110 :
#1316
03
0.
0$
#1321
13
1.
1$
b00000000000000011011 +
b00000000000001001111 :
#1326
03
0.
0$
#1331
13
1.
1$
b00000000000000011100 +
b00000000000001010000 :
#1336
03
0.
0$
#1341
13
1.
1$
b00000000000000011101 +
b00000000000001010001 :
#1346
03
0.
0$
#1351
13
1.
1$
b00000000000000011110 +
b00000000000001010010 :
#1356
03
0.
0$
#1361
13
1.
1$
b00000000000000011111 +
b00000000000001010011 :
#1366
03
0.
0$
#1371
13
1.
1$
b00000000000000100000 +
b00000000000001010100 :
#1376
03
0.
0$
#1381
13
1.
1$
b00000000000000100001 +
b00000000000001010101 :
#1386
03
0.
0$
#1391
13
1.
1$
b00000000000000100010 +
b00000000000001010110 :
#1396
03
0.
0$
#1401
13
1.
1$
b00000000000000100011 +
b00000000000001010111 :
#1406
03
0.
0$
#1411
13
1.
1$
b00000000000000100100 +
b00000000000001011000 :
#1416
03
0.
0$
#1421
13
1.
1$
b00000000000000100101 +
b00000000000001011001 :
#1426
03
0.
0$
#1431
13
1.
1$
b00000000000000100110 +
b00000000000001011010 :
#1436
03
0.
0$
#1441
13
1.
1$
b00000000000000100111 +
b00000000000001011011 :
#1446
03
0.
0$
#1451
13
1.
1$
b00000000000000101000 +
b00000000000001011100 :
#1456
03
0.
0$
#1461
13
1.
1$
b00000000000000101001 +
b00000000000001011101 :
#1466
03
0.
0$
#1471
13
1.
1$
b00000000000000101010 +
b00000000000001011110 :
#1476
03
0.
0$
#1481
13
1.
1$
b00000000000000101011 +
b00000000000001011111 :
#1486
03
0.
0$
#1491
13
1.
1$
b00000000000000101100 +
b00000000000001100000 :
#1496
03
0.
0$
#1501
13
1.
1$
b00000000000000101101 +
b00000000000001100001 :
#1506
03
0.
0$
#1511
13
1.
1$
b00000000000000101110 +
b00000000000001100010 :
#1516
03
0.
0$
#1521
13
1.
1$
b00000000000000101111 +
b00000000000001100011 :
#1526
03
0.
0$
#1531
13
1.
1$
b00000000000000110000 +
b00000000000001100100 :
#1536
03
0.
0$
#1541
13
1.
1$
b00000000000000110001 +
b00000000000001100101 :
#1546
03
0.
0$
#1551
13
1.
1$
b00000000000000110010 +
b00000000000001100110 :
#1556
03
0.
0$
#1561
13
1.
1$
b00000000000000110011 +
b00000000000001100111 :
#1566
03
0.
0$
#1571
13
1.
b0010 &
b1111111110 2
1$
b00000000000000110100 +
b00000000000000000000 :
#1576
03
0.
0$
#1581
13
1.
1$
b00000000000000110101 +
b00000000000000000001 :
#1586
03
0.
0$
#1591
13
1.
1$
b00000000000000110110 +
b00000000000000000010 :
#1596
03
0.
0$
#1601
13
1.
1$
b00000000000000110111 +
b00000000000000000011 :
#1606
03
0.
0$
#1611
13
1.
1$
b00000000000000111000 +
b00000000000000000100 :
#1616
03
0.
0$
#1621
13
1.
1$
b00000000000000111001 +
b00000000000000000101 :
#1626
03
0.
0$
#1631
13
1.
1$
b00000000000000111010 +
b00000000000000000110 :
#1636
03
0.
0$
#1641
13
1.
1$
b00000000000000111011 +
b00000000000000000111 :
#1646
03
0.
0$
#1651
13
1.
1$
b00000000000000111100 +
b00000000000000001000 :
#1656
03
0.
0$
#1661
13
1.
1$
b00000000000000111101 +
b00000000000000001001 :
#1666
03
0.
0$
#1671
13
1.
1$
b00000000000000111110 +
b00000000000000001010 :
#1676
03
0.
0$
#1681
13
1.
1$
b00000000000000111111 +
b00000000000000001011 :
#1686
03
0.
0$
#1691
13
1.
1$
b00000000000001000000 +
b00000000000000001100 :
#1696
03
0.
0$
#1701
13
1.
1$
b00000000000001000001 +
b00000000000000001101 :
#1706
03
0.
0$
#1711
13
1.
1$
b00000000000001000010 +
b00000000000000001110 :
#1716
03
0.
0$
#1721
13
1.
1$
b00000000000001000011 +
b00000000000000001111 :
#1726
03
0.
0$
#1731
13
1.
1$
b00000000000001000100 +
b00000000000000010000 :
#1736
03
0.
0$
#1741
13
1.
1$
b00000000000001000101 +
b00000000000000010001 :
#1746
03
0.
0$
#1751
13
1.
1$
b00000000000001000110 +
b00000000000000010010 :
#1756
03
0.
0$
#1761
13
1.
1$
b00000000000001000111 +
b00000000000000010011 :
#1766
03
0.
0$
#1771
13
1.
1$
b00000000000001001000 +
b00000000000000010100 :
#1776
03
0.
0$
#1781
13
1.
1$
b00000000000001001001 +
b00000000000000010101 :
#1786
03
0.
0$
#1791
13
1.
1$
b00000000000001001010 +
b00000000000000010110 :
#1796
03
0.
0$
#1801
13
1.
1$
b00000000000001001011 +
b00000000000000010111 :
#1806
03
0.
0$
#1811
13
1.
1$
b00000000000001001100 +
b00000000000000011000 :
#1816
03
0.
0$
#1821
13
1.
1$
b00000000000001001101 +
b00000000000000011001 :
#1826
03
0.
0$
#1831
13
1.
1$
b00000000000001001110 +
b00000000000000011010 :
#1836
03
0.
0$
#1841
13
1.
1$
b00000000000001001111 +
b00000000000000011011 :
#1846
03
0.
0$
#1851
13
1.
1$
b00000000000001010000 +
b00000000000000011100 :
#1856
03
0.
0$
#1861
13
1.
1$
b00000000000001010001 +
b00000000000000011101 :
#1866
03
0.
0$
#1871
13
1.
1$
b00000000000001010010 +
b00000000000000011110 :
#1876
03
0.
0$
#1881
13
1.
1$
b00000000000001010011 +
b00000000000000011111 :
#1886
03
0.
0$
#1891
13
1.
1$
b00000000000001010100 +
b00000000000000100000 :
#1896
03
0.
0$
#1901
13
1.
1$
b00000000000001010101 +
b00000000000000100001 :
#1906
03
0.
0$
#1911
13
1.
1$
b00000000000001010110 +
b00000000000000100010 :
#1916
03
0.
0$
#1921
13
1.
1$
b00000000000001010111 +
b00000000000000100011 :
#1926
03
0.
0$
#1931
13
1.
1$
b00000000000001011000 +
b00000000000000100100 :
#1936
03
0.
0$
#1941
13
1.
1$
b00000000000001011001 +
b00000000000000100101 :
#1946
03
0.
0$
#1951
13
1.
1$
b00000000000001011010 +
b00000000000000100110 :
#1956
03
0.
0$
#1961
13
1.
1$
b00000000000001011011 +
b00000000000000100111 :
#1966
03
0.
0$
#1971
13
1.
1$
b00000000000001011100 +
b00000000000000101000 :
#1976
03
0.
0$
#1981
13
1.
1$
b00000000000001011101 +
b00000000000000101001 :
#1986
03
0.
0$
#1991
13
1.
1$
b00000000000001011110 +
b00000000000000101010 :
#1996
03
0.
0$
#2001
13
1.
1$
b00000000000001011111 +
b00000000000000101011 :
#2006
03
0.
0$
#2011
13
1.
1$
b00000000000001100000 +
b00000000000000101100 :
#2016
03
0.
0$
#2021
13
1.
1$
b00000000000001100001 +
b00000000000000101101 :
#2026
03
0.
0$
#2031
13
1.
1$
b00000000000001100010 +
b00000000000000101110 :
#2036
03
0.
0$
#2041
13
1.
1$
b00000000000001100011 +
b00000000000000101111 :
#2046
03
0.
0$
#2051
13
1.
1$
b00000000000001100100 +
b00000000000000110000 :
#2056
03
0.
0$
#2061
13
1.
1$
b00000000000001100101 +
b00000000000000110001 :
#2066
03
0.
0$
#2071
13
1.
1$
b00000000000001100110 +
b00000000000000110010 :
#2076
03
0.
0$
#2081
13
1.
1$
b00000000000001100111 +
b00000000000000110011 :
#2086
03
0.
0$
#2091
13
b11111010101 !
b0010 1
1.
1@
1#
1$
b00000000000000000000 +
b00000000000000110100 :
#2096
03
0.
0$
#2101
13
1.
1$
16
b00000000000000000001 +
b00000000000000110101 :
#2106
03
0.
0$
#2111
13
1.
1'
1$
b00000000000000000010 +
b00000000000000110110 :
#2116
03
0.
0$
#2121
13
1.
1$
b00000000000000000011 +
b00000000000000110111 :
#2126
03
0.
0$
#2131
13
1.
1$
b00000000000000000100 +
b00000000000000111000 :
#2136
03
0.
0$
#2141
13
1.
1$
b00000000000000000101 +
b00000000000000111001 :
#2146
03
0.
0$
#2151
13
1.
1$
b00000000000000000110 +
b00000000000000111010 :
#2156
03
0.
0$
#2161
13
1.
1$
b00000000000000000111 +
b00000000000000111011 :
#2166
03
0.
0$
#2171
13
1.
1$
b00000000000000001000 +
b00000000000000111100 :
#2176
03
0.
0$
#2181
13
1.
1$
b00000000000000001001 +
b00000000000000111101 :
#2186
03
0.
0$
#2191
13
1.
1$
b00000000000000001010 +
b00000000000000111110 :
#2196
03
0.
0$
#2201
13
1.
1$
b00000000000000001011 +
b00000000000000111111 :
#2206
03
0.
0$
#2211
13
1.
1$
b00000000000000001100 +
b00000000000001000000 :
#2216
03
0.
0$
#2221
13
1.
1$
b00000000000000001101 +
b00000000000001000001 :
#2226
03
0.
0$
#2231
13
1.
1$
b00000000000000001110 +
b00000000000001000010 :
#2236
03
0.
0$
#2241
13
1.
1$
b00000000000000001111 +
b00000000000001000011 :
#2246
03
0.
0$
#2251
13
1.
1$
b00000000000000010000 +
b00000000000001000100 :
#2256
03
0.
0$
#2261
13
1.
1$
b00000000000000010001 +
b00000000000001000101 :
#2266
03
0.
0$
#2271
13
1.
1$
b00000000000000010010 +
b00000000000001000110 :
#2276
03
0.
0$
#2281
13
1.
1$
b00000000000000010011 +
b00000000000001000111 :
#2286
03
0.
0$
#2291
13
1.
1$
b00000000000000010100 +
b00000000000001001000 :
#2296
03
0.
0$
#2301
13
1.
1$
b00000000000000010101 +
b00000000000001001001 :
#2306
03
0.
0$
#2311
13
1.
1$
b00000000000000010110 +
b00000000000001001010 :
#2316
03
0.
0$
#2321
13
1.
1$
b00000000000000010111 +
b00000000000001001011 :
#2326
03
0.
0$
#2331
13
1.
1$
b00000000000000011000 +
b00000000000001001100 :
#2336
03
0.
0$
#2341
13
1.
1$
b00000000000000011001 +
b00000000000001001101 :
#2346
03
0.
0$
#2351
13
1.
1$
b00000000000000011010 +
b00000000000001001110 :
#2356
03
0.
0$
#2361
13
1.
1$
b00000000000000011011 +
b00000000000001001111 :
#2366
03
0.
0$
#2371
13
1.
1$
b00000000000000011100 +
b00000000000001010000 :
#2376
03
0.
0$
#2381
13
1.
1$
b00000000000000011101 +
b00000000000001010001 :
#2386
03
0.
0$
#2391
13
1.
1$
b00000000000000011110 +
b00000000000001010010 :
#2396
03
0.
0$
#2401
13
1.
1$
b00000000000000011111 +
b00000000000001010011 :
#2406
03
0.
0$
#2411
13
1.
1$
b00000000000000100000 +
b00000000000001010100 :
#2416
03
0.
0$
#2421
13
1.
1$
b00000000000000100001 +
b00000000000001010101 :
#2426
03
0.
0$
#2431
13
1.
1$
b00000000000000100010 +
b00000000000001010110 :
#2436
03
0.
0$
#2441
13
1.
1$
b00000000000000100011 +
b00000000000001010111 :
#2446
03
0.
0$
#2451
13
1.
1$
b00000000000000100100 +
b00000000000001011000 :
#2456
03
0.
0$
#2461
13
1.
1$
b00000000000000100101 +
b00000000000001011001 :
#2466
03
0.
0$
#2471
13
1.
1$
b00000000000000100110 +
b00000000000001011010 :
#2476
03
0.
0$
#2481
13
1.
1$
b00000000000000100111 +
b00000000000001011011 :
#2486
03
0.
0$
#2491
13
1.
1$
b00000000000000101000 +
b00000000000001011100 :
#2496
03
0.
0$
#2501
13
1.
1$
b00000000000000101001 +
b00000000000001011101 :
#2506
03
0.
0$
#2511
13
1.
1$
b00000000000000101010 +
b00000000000001011110 :
#2516
03
0.
0$
#2521
13
1.
1$
b00000000000000101011 +
b00000000000001011111 :
#2526
03
0.
0$
#2531
13
1.
1$
b00000000000000101100 +
b00000000000001100000 :
#2536
03
0.
0$
#2541
13
1.
1$
b00000000000000101101 +
b00000000000001100001 :
#2546
03
0.
0$
#2551
13
1.
1$
b00000000000000101110 +
b00000000000001100010 :
#2556
03
0.
0$
#2561
13
1.
1$
b00000000000000101111 +
b00000000000001100011 :
#2566
03
0.
0$
#2571
13
1.
1$
b00000000000000110000 +
b00000000000001100100 :
#2576
03
0.
0$
#2581
13
1.
1$
b00000000000000110001 +
b00000000000001100101 :
#2586
03
0.
0$
#2591
13
1.
1$
b00000000000000110010 +
b00000000000001100110 :
#2596
03
0.
0$
#2601
13
1.
1$
b00000000000000110011 +
b00000000000001100111 :
#2606
03
0.
0$
#2611
13
1.
b0011 &
b1111111101 2
1$
b00000000000000110100 +
b00000000000000000000 :
#2616
03
0.
0$
#2621
13
1.
1$
b00000000000000110101 +
b00000000000000000001 :
#2626
03
0.
0$
#2631
13
1.
1$
b00000000000000110110 +
b00000000000000000010 :
#2636
03
0.
0$
#2641
13
1.
1$
b00000000000000110111 +
b00000000000000000011 :
#2646
03
0.
0$
#2651
13
1.
1$
b00000000000000111000 +
b00000000000000000100 :
#2656
03
0.
0$
#2661
13
1.
1$
b00000000000000111001 +
b00000000000000000101 :
#2666
03
0.
0$
#2671
13
1.
1$
b00000000000000111010 +
b00000000000000000110 :
#2676
03
0.
0$
#2681
13
1.
1$
b00000000000000111011 +
b00000000000000000111 :
#2686
03
0.
0$
#2691
13
1.
1$
b00000000000000111100 +
b00000000000000001000 :
#2696
03
0.
0$
#2701
13
1.
1$
b00000000000000111101 +
b00000000000000001001 :
#2706
03
0.
0$
#2711
13
1.
1$
b00000000000000111110 +
b00000000000000001010 :
#2716
03
0.
0$
#2721
13
1.
1$
b00000000000000111111 +
b00000000000000001011 :
#2726
03
0.
0$
#2731
13
1.
1$
b00000000000001000000 +
b00000000000000001100 :
#2736
03
0.
0$
#2741
13
1.
1$
b00000000000001000001 +
b00000000000000001101 :
#2746
03
0.
0$
#2751
13
1.
1$
b00000000000001000010 +
b00000000000000001110 :
#2756
03
0.
0$
#2761
13
1.
1$
b00000000000001000011 +
b00000000000000001111 :
#2766
03
0.
0$
#2771
13
1.
1$
b00000000000001000100 +
b00000000000000010000 :
#2776
03
0.
0$
#2781
13
1.
1$
b00000000000001000101 +
b00000000000000010001 :
#2786
03
0.
0$
#2791
13
1.
1$
b00000000000001000110 +
b00000000000000010010 :
#2796
03
0.
0$
#2801
13
1.
1$
b00000000000001000111 +
b00000000000000010011 :
#2806
03
0.
0$
#2811
13
1.
1$
b00000000000001001000 +
b00000000000000010100 :
#2816
03
0.
0$
#2821
13
1.
1$
b00000000000001001001 +
b00000000000000010101 :
#2826
03
0.
0$
#2831
13
1.
1$
b00000000000001001010 +
b00000000000000010110 :
#2836
03
0.
0$
#2841
13
1.
1$
b00000000000001001011 +
b00000000000000010111 :
#2846
03
0.
0$
#2851
13
1.
1$
b00000000000001001100 +
b00000000000000011000 :
#2856
03
0.
0$
#2861
13
1.
1$
b00000000000001001101 +
b00000000000000011001 :
#2866
03
0.
0$
#2871
13
1.
1$
b00000000000001001110 +
b00000000000000011010 :
#2876
03
0.
0$
#2881
13
1.
1$
b00000000000001001111 +
b00000000000000011011 :
#2886
03
0.
0$
#2891
13
1.
1$
b00000000000001010000 +
b00000000000000011100 :
#2896
03
0.
0$
#2901
13
1.
1$
b00000000000001010001 +
b00000000000000011101 :
#2906
03
0.
0$
#2911
13
1.
1$
b00000000000001010010 +
b00000000000000011110 :
#2916
03
0.
0$
#2921
13
1.
1$
b00000000000001010011 +
b00000000000000011111 :
#2926
03
0.
0$
#2931
13
1.
1$
b00000000000001010100 +
b00000000000000100000 :
#2936
03
0.
0$
#2941
13
1.
1$
b00000000000001010101 +
b00000000000000100001 :
#2946
03
0.
0$
#2951
13
1.
1$
b00000000000001010110 +
b00000000000000100010 :
#2956
03
0.
0$
#2961
13
1.
1$
b00000000000001010111 +
b00000000000000100011 :
#2966
03
0.
0$
#2971
13
1.
1$
b00000000000001011000 +
b00000000000000100100 :
#2976
03
0.
0$
#2981
13
1.
1$
b00000000000001011001 +
b00000000000000100101 :
#2986
03
0.
0$
#2991
13
1.
1$
b00000000000001011010 +
b00000000000000100110 :
#2996
03
0.
0$
#3001
13
1.
1$
b00000000000001011011 +
b00000000000000100111 :
#3006
03
0.
0$
#3011
13
1.
1$
b00000000000001011100 +
b00000000000000101000 :
#3016
03
0.
0$
#3021
13
1.
1$
b00000000000001011101 +
b00000000000000101001 :
#3026
03
0.
0$
#3031
13
1.
1$
b00000000000001011110 +
b00000000000000101010 :
#3036
03
0.
0$
#3041
13
1.
1$
b00000000000001011111 +
b00000000000000101011 :
#3046
03
0.
0$
#3051
13
1.
1$
b00000000000001100000 +
b00000000000000101100 :
#3056
03
0.
0$
#3061
13
1.
1$
b00000000000001100001 +
b00000000000000101101 :
#3066
03
0.
0$
